using System;
using System.Collections.Generic;
using System.Linq;
using System.Text;
using System.Threading.Tasks;
using System.CodeDom;
using System.ComponentModel;
using System.Configuration;
using System.Threading;

namespace ConsoleApplication1
{
    class Program
    {
        private static void ActivateMenu()
        {
            var alph = /*ReadValueFromConsole<string>("Введите алфавит");*/
                // АБВГДЕЖЗИКЛМНОПРСТУФХЦЧШЩЪЫЬЭЮЯ
            "АБВГДЕЖЗИКЛМНОПРСТУФХЦЧШЩЪЫЬЭЮЯ";

            this.Alphabet = Alphabet.ToLower()
                .Replace("й", "")
                .Replace("ё", "")
                .Replace(" ", "")
                .Replace("ь", "");
        }
                        else
                        {
                            if (addlogin[i] == "" || addlogin[i] != "есиков")
                                continue;
                            Console.WriteLine("\nВведен неверный пароль");
        }
                        Console.ReadKey();
                        break;
                    case 2:
                        Console.Clear();
                        var login = ReadValueFromConsole<string>("Введите новый логин");
                        var loginpc = new PlayfairCipher(alph, login);
                        var addedperson = ReadValueFromConsole<string>("\nВведите новый пароль ");
                        var cryptedadd = loginpc.Crypt(addedperson);
                        passwords[i] = cryptedadd;
                        var check = ReadValueFromConsole<string>("\nПроверка пароля: ");
                        var checkpass = loginpc.Crypt(check);
                        addpasword[i] = checkpass;
                        addlogin[i] = login;
                        if (passwords[i] == addpasword[i])
                        {
            Func<string[,], int[], int[], string> getPair = GetPairForUncrypt;

            return CryptOrUncrypt(Message, getPair);
                        }
                        else
                        {
                            if (addlogin[i] == "" || addlogin[i] != addlogin[0])
                                continue;
                            Console.WriteLine("\nВведен неверный пароль");
                        }
                        Console.ReadKey();
                        break;
                    case 3:
                        i = 0;
                        active = new Random().Next(3) != 0;
                        if (!active)
            {
                            Console.WriteLine("Lucky One");
                            Thread.Sleep(2 * 1000);
                        }
                        break;
                    default:
                        break;
                }
            }
        }
        public static T ReadValueFromConsole<T>(string message)
        {
            //Console.ForegroundColor = ConsoleColor.Yellow;
            Console.WriteLine(message);
            //Console.ForegroundColor = ConsoleColor.White;
            while (true)
            {
                try
                {
                    return (T)Convert.ChangeType(Console.ReadLine(), typeof(T));
                }
                catch (Exception)
                {
                    Console.WriteLine("Возникла ошибка. Повторите ввод");
                }
            }

        }
        static void Main(string[] args)
        {
            ActivateMenu();
        }
    }